[
  {
    "normalForm": "parler",
    "translations": [ "to speak", "to talk" ]
  },
  {
    "normalForm": "prendre",
    "translations": [ "to take", "to catch", "to capture"]
  },
  {
    "normalForm": "pouvoir",
    "translations": [ "to be able to", "can"]
  }
]
